…
    # A tibble: 2 × 9
      country     `1960` `1961` `1962` `1963` `1964` `1965` `1966` `1967`
      <chr>        <dbl>  <dbl>  <dbl>  <dbl>  <dbl>  <dbl>  <dbl>  <dbl>
    1 Germany       2.41   2.44   2.47   2.49   2.49   2.48   2.44   2.37
    2 South Korea   6.16   5.99   5.79   5.57   5.36   5.16   4.99   4.85

A esta forma (nombre de las columnas a niveles de una variable en una
sola columna):

``` r
wide_data %>% pivot_longer("1960":"2015")
```

    # A tibble: 112 × 3
       country name  value
       <chr>   <chr> <dbl>
     1 Germany 1960   2.41
     2 Germany 1961   2.44
     3 Germany 1962   2.47
     4 Germany 1963   2.49
     5 Germany 1964   2.49
     6 Germany 1965   2.48
     7 Germany 1966   2.44
     8 Germany 1967   2.37
     9 Germany 1968   2.28
    10 Germany 1969   2.17
    # ℹ 102 more rows
…
La función separate() toma tres argumentos. El primero es el nombre de
la columna que será separada. El segundo el nombre para las nuevas
columnas y el tercero será el caracter que separa las variables

``` r
dat %>% separate(name, c("year", "name"), sep = "_")
```

    Warning: Expected 2 pieces. Additional pieces discarded in 112 rows [2, 4, 6, 8, 10, 12,
    14, 16, 18, 20, 22, 24, 26, 28, 30, 32, 34, 36, 38, 40, ...].

    # A tibble: 224 × 4
       country year  name      value
       <chr>   <chr> <chr>     <dbl>
     1 Germany 1960  fertility  2.41
     2 Germany 1960  life      69.3 
     3 Germany 1961  fertility  2.44
     4 Germany 1961  life      69.8 
     5 Germany 1962  fertility  2.47
     6 Germany 1962  life      70.0 
     7 Germany 1963  fertility  2.49
     8 Germany 1963  life      70.1 
     9 Germany 1964  fertility  2.49
    10 Germany 1964  life      70.7 
    # ℹ 214 more rows

Con el argumento convert = TRUE, se transforma automáticamente el año en
valor numérico

``` r
dat %>% separate(name, c("year", "name"), convert = TRUE)
```

    Warning: Expected 2 pieces. Additional pieces discarded in 112 rows [2, 4, 6, 8, 10, 12,
    14, 16, 18, 20, 22, 24, 26, 28, 30, 32, 34, 36, 38, 40, ...].

    # A tibble: 224 × 4
       country  year name      value
       <chr>   <int> <chr>     <dbl>
     1 Germany  1960 fertility  2.41
     2 Germany  1960 life      69.3 
     3 Germany  1961 fertility  2.44
     4 Germany  1961 life      69.8 
     5 Germany  1962 fertility  2.47
     6 Germany  1962 life      70.0 
     7 Germany  1963 fertility  2.49
     8 Germany  1963 life      70.1 
     9 Germany  1964 fertility  2.49
    10 Germany  1964 life      70.7 
    # ℹ 214 more rows

Se puede agregar otra columna para el “expectancy. Se llenarán algunos
valores nulos automáticamente (espacios fertility)

``` r
dat %>% separate(name, c("year", "name1", "name2"),
                 fill = "right" ,
                 convert = TRUE)
```

    # A tibble: 224 × 5
       country  year name1     name2      value
       <chr>   <int> <chr>     <chr>      <dbl>
     1 Germany  1960 fertility <NA>        2.41
     2 Germany  1960 life      expectancy 69.3 
     3 Germany  1961 fertility <NA>        2.44
     4 Germany  1961 life      expectancy 69.8 
     5 Germany  1962 fertility <NA>        2.47
     6 Germany  1962 life      expectancy 70.0 
     7 Germany  1963 fertility <NA>        2.49
     8 Germany  1963 life      expectancy 70.1 
     9 Germany  1964 fertility <NA>        2.49
    10 Germany  1964 life      expectancy 70.7 
    # ℹ 214 more rows

Sin embargo, es un mejor enfoque unir los nombres extra que se generen a
partir del argumento extra= “merge”

``` r
dat %>%  separate(name, c("year", "name"), sep="_",
                  extra = "merge", convert = TRUE)
```

    # A tibble: 224 × 4
       country  year name            value
       <chr>   <int> <chr>           <dbl>
     1 Germany  1960 fertility        2.41
     2 Germany  1960 life_expectancy 69.3 
     3 Germany  1961 fertility        2.44
     4 Germany  1961 life_expectancy 69.8 
     5 Germany  1962 fertility        2.47
     6 Germany  1962 life_expectancy 70.0 
     7 Germany  1963 fertility        2.49
     8 Germany  1963 life_expectancy 70.1 
     9 Germany  1964 fertility        2.49
    10 Germany  1964 life_expectancy 70.7 
    # ℹ 214 more rows

Finalmente, se separan los datos de fertility y life_expectancy en
columnas

``` r
dat %>% separate(name, c("year", "name"), sep = "_",
                 extra="merge", convert = TRUE) %>%
  pivot_wider()
```

    # A tibble: 112 × 4
       country  year fertility life_expectancy
       <chr>   <int>     <dbl>           <dbl>
     1 Germany  1960      2.41            69.3
     2 Germany  1961      2.44            69.8
     3 Germany  1962      2.47            70.0
     4 Germany  1963      2.49            70.1
     5 Germany  1964      2.49            70.7
     6 Germany  1965      2.48            70.6
     7 Germany  1966      2.44            70.8
     8 Germany  1967      2.37            71.0
     9 Germany  1968      2.28            70.6
    10 Germany  1969      2.17            70.5
    # ℹ 102 more rows

#### Unite

Función inversa de separate()

``` r
dat %>% 
  separate(name, c("year", "name1", "name2"),
           fill="right", convert = TRUE) %>% 
  unite(variable_name, name1, name2)
```

    # A tibble: 224 × 4
       country  year variable_name   value
       <chr>   <int> <chr>           <dbl>
     1 Germany  1960 fertility_NA     2.41
     2 Germany  1960 life_expectancy 69.3 
     3 Germany  1961 fertility_NA     2.44
     4 Germany  1961 life_expectancy 69.8 
     5 Germany  1962 fertility_NA     2.47
     6 Germany  1962 life_expectancy 70.0 
     7 Germany  1963 fertility_NA     2.49
     8 Germany  1963 life_expectancy 70.1 
     9 Germany  1964 fertility_NA     2.49
    10 Germany  1964 life_expectancy 70.7 
    # ℹ 214 more rows

Y finalmente, dispersar las columnas

``` r
dat %>% 
  separate(name, c("year", "name1", "name2"),
           fill="right", convert = TRUE) %>% #Separar 
  unite(name, name1, name2) %>% #Unir como un solo nombre
  spread(name, value) %>% #Spread() sirve como pivot_wide() 
  rename(fertility = fertility_NA)
```

    # A tibble: 112 × 4
       country  year fertility life_expectancy
       <chr>   <int>     <dbl>           <dbl>
     1 Germany  1960      2.41            69.3
     2 Germany  1961      2.44            69.8
     3 Germany  1962      2.47            70.0
     4 Germany  1963      2.49            70.1
     5 Germany  1964      2.49            70.7
     6 Germany  1965      2.48            70.6
     7 Germany  1966      2.44            70.8
     8 Germany  1967      2.37            71.0
     9 Germany  1968      2.28            70.6
    10 Germany  1969      2.17            70.5
    # ℹ 102 more rows
…
``` r
tmp <- admissions %>%
  pivot_longer(cols = c(admitted, applicants), names_to = "key", values_to = "value")
tmp
```

    # A tibble: 24 × 4
       major gender key        value
       <chr> <chr>  <chr>      <dbl>
     1 A     men    admitted      62
     2 A     men    applicants   825
     3 B     men    admitted      63
     4 B     men    applicants   560
     5 C     men    admitted      37
     6 C     men    applicants   325
     7 D     men    admitted      33
     8 D     men    applicants   417
     9 E     men    admitted      28
    10 E     men    applicants   191
    # ℹ 14 more rows

``` r
tmp2 <- unite(tmp, column_name, c(key, gender))
tmp2
```

    # A tibble: 24 × 3
       major column_name    value
       <chr> <chr>          <dbl>
     1 A     admitted_men      62
     2 A     applicants_men   825
     3 B     admitted_men      63
     4 B     applicants_men   560
     5 C     admitted_men      37
     6 C     applicants_men   325
     7 D     admitted_men      33
     8 D     applicants_men   417
     9 E     admitted_men      28
    10 E     applicants_men   191
    # ℹ 14 more rows

``` r
tmp2 <- unite(tmp, column_name, c(key, gender)) 
tmp2
```

    # A tibble: 24 × 3
       major column_name    value
       <chr> <chr>          <dbl>
     1 A     admitted_men      62
     2 A     applicants_men   825
     3 B     admitted_men      63
     4 B     applicants_men   560
     5 C     admitted_men      37
     6 C     applicants_men   325
     7 D     admitted_men      33
     8 D     applicants_men   417
     9 E     admitted_men      28
    10 E     applicants_men   191
    # ℹ 14 more rows
…
Revisar el data frame People, que tiene información demográfica de todos
los jugadores

``` r
People %>% as_tibble()
```

    # A tibble: 21,010 × 26
       playerID  birthYear birthMonth birthDay birthCity    birthCountry birthState
       <chr>         <int>      <int>    <int> <chr>        <chr>        <chr>     
     1 aardsda01      1981         12       27 Denver       USA          CO        
     2 aaronha01      1934          2        5 Mobile       USA          AL        
     3 aaronto01      1939          8        5 Mobile       USA          AL        
     4 aasedo01       1954          9        8 Orange       USA          CA        
     5 abadan01       1972          8       25 Palm Beach   USA          FL        
     6 abadfe01       1985         12       17 La Romana    D.R.         La Romana 
     7 abadijo01      1850         11        4 Philadelphia USA          PA        
     8 abbated01      1877          4       15 Latrobe      USA          PA        
     9 abbeybe01      1869         11       11 Essex        USA          VT        
    10 abbeych01      1866         10       14 Falls City   USA          NE        
    # ℹ 21,000 more rows
    # ℹ 19 more variables: deathYear <int>, deathMonth <int>, deathDay <int>,
    #   deathCountry <chr>, deathState <chr>, deathCity <chr>, nameFirst <chr>,
    #   nameLast <chr>, nameGiven <chr>, weight <int>, height <int>, bats <fct>,
    #   throws <fct>, debut <chr>, bbrefID <chr>, finalGame <chr>, retroID <chr>,
    #   deathDate <date>, birthDate <date>
…
If the content of this object is an html table, we can use
the `html_table()` function to convert it to a data frame:

``` r
tab1 <- html_table(nodes[[8]])
```

``` r
html_table(nodes[[8]])
```

    # A tibble: 30 × 4
       Team                  Payroll       Averge      Median     
       <chr>                 <chr>         <chr>       <chr>      
     1 New York Yankees      $ 197,962,289 $ 6,186,321 $ 1,937,500
     2 Philadelphia Phillies $ 174,538,938 $ 5,817,964 $ 1,875,000
     3 Boston Red Sox        $ 173,186,617 $ 5,093,724 $ 1,556,250
     4 Los Angeles Angels    $ 154,485,166 $ 5,327,074 $ 3,150,000
     5 Detroit Tigers        $ 132,300,000 $ 4,562,068 $ 1,100,000
     6 Texas Rangers         $ 120,510,974 $ 4,635,037 $ 3,437,500
     7 Miami Marlins         $ 118,078,000 $ 4,373,259 $ 1,500,000
     8 San Francisco Giants  $ 117,620,683 $ 3,920,689 $ 1,275,000
     9 St. Louis Cardinals   $ 110,300,862 $ 3,939,316 $ 800,000  
    10 Milwaukee Brewers     $ 97,653,944  $ 3,755,920 $ 1,981,250
    # ℹ 20 more rows
…
    # A tibble: 6 × 3
      Team        Payroll      Average   
      <chr>       <chr>        <chr>     
    1 NY Yankees  $109,791,893 $3,541,674
    2 Boston      $109,558,908 $3,423,716
    3 Los Angeles $108,980,952 $3,757,964
    4 NY Mets     $93,174,428  $3,327,658
    5 Cleveland   $91,974,979  $3,065,833
    6 Atlanta     $91,851,687  $2,962,958

``` r
full_join(tab1,tab2, by="Team")
```

    # A tibble: 58 × 5
       Team                  Payroll.x    Average.x  Payroll.y   Average.y 
       <chr>                 <chr>        <chr>      <chr>       <chr>     
     1 New York Yankees      $206,333,389 $8,253,336 <NA>        <NA>      
     2 Boston Red Sox        $162,747,333 $5,611,977 <NA>        <NA>      
     3 Chicago Cubs          $146,859,000 $5,439,222 $64,015,833 $2,462,147
     4 Philadelphia Phillies $141,927,381 $5,068,835 <NA>        <NA>      
     5 New York Mets         $132,701,445 $5,103,902 <NA>        <NA>      
     6 Detroit Tigers        $122,864,929 $4,550,553 <NA>        <NA>      
     7 Chicago White Sox     $108,273,197 $4,164,354 $62,363,000 $2,309,741
     8 Los Angeles Angels    $105,013,667 $3,621,161 <NA>        <NA>      
     9 Seattle Mariners      $98,376,667  $3,513,452 <NA>        <NA>      
    10 San Francisco Giants  $97,828,833  $3,493,887 <NA>        <NA>      
    # ℹ 48 more rows
…
